[
"https://egemaximum.ru/",
"https://egemaximum.ru/kontaktyi/",
"https://egemaximum.ru/spravochnik/",
"https://egemaximum.ru/stati/gia/",
"https://egemaximum.ru/stati/ege/",
"https://egemaximum.ru/stati/",
"https://egemaximum.ru/testyi/",
"https://egemaximum.ru/stati-2/",
"https://egemaximum.ru/arxiv/",
"https://egemaximum.ru/arxiv/2019-2/",
"https://egemaximum.ru/arxiv/2018-2/",
"https://egemaximum.ru/arxiv/ege-2016/",
"https://egemaximum.ru/arxiv/ege-2014-2015/",
"https://egemaximum.ru/arxiv/arxiv-ege-2013/",
"https://egemaximum.ru/arxiv/2017-2/",
"https://egemaximum.ru/arxiv/mgu/",
"https://egemaximum.ru/arxiv/olimpiadyi/",
"https://egemaximum.ru/karta-sayta/",
"https://egemaximum.ru/ob-otdelnyx-sluchayax-vychisleniya-diskriminanta/",
"https://egemaximum.ru/wpm/start/",
"https://egemaximum.ru/comment-page-14/",
"https://egemaximum.ru/neravenstva-s3-17-podgotovka-k-ege-po-matematike/",
"https://egemaximum.ru/bankovskie-zadachi-dlya-podgotovki-k-ege/",
"https://egemaximum.ru/zadaniya-s-parametrom-dlya-podgotovki-k-ege/",
"https://egemaximum.ru/zadanie-19-realnyiy-ege-2018-ot-1-iyunya/",
"https://egemaximum.ru/zadanie-18-realnyiy-ege-2018-ot-1-iyunya/",
"https://egemaximum.ru/zadanie-17-realnyiy-ege-2018-ot-1-iyunya/",
"https://egemaximum.ru/zadanie-16-realnyiy-ege-2018-ot-1-iyunya/",
"https://egemaximum.ru/zadanie-15-realnyiy-ege-2018-ot-1-iyunya/",
"https://egemaximum.ru/zadanie-14-realnyiy-ege-2018-ot-1-iyunya/",
"https://egemaximum.ru/zadanie-13-realnyiy-ege-2018-ot-1-iyunya/",
"https://egemaximum.ru/wppage/videolekciya-tekstovye-zadachi/",
"https://egemaximum.ru/170/",
"https://egemaximum.ru/modul-raskrytie-modulya-prosteshie-uravneniya-s-modulem/",
"https://egemaximum.ru/modul/",
"https://egemaximum.ru/metod-intervalov/",
"https://egemaximum.ru/obobshhennnyj-metod-intervalov/",
"https://egemaximum.ru/metod-racionalizacii-chast-1/",
"https://egemaximum.ru/pokazatelnye-neravenstva/",
"https://egemaximum.ru/arifmeticheskaya-progresciya-chast-1/",
"https://egemaximum.ru/geometricheskaya-progressiya/",
"https://egemaximum.ru/proporciya/",
"https://egemaximum.ru/razlozhenie-na-mnozhiteli/",
"https://egemaximum.ru/sposoby-resheniya-sistem-uravnenij-s-dvumya-neizvestnymi/",
"https://egemaximum.ru/svoystva-stepeney/",
"https://egemaximum.ru/izvlechenie-kornya-iz-bolshogo-chisla/",
"https://egemaximum.ru/kvadratnoe-uravnenie/",
"https://egemaximum.ru/racionalnye-uravneniya-reshaemye-cherez-zamenu-peremennoj/",
"https://egemaximum.ru/irracionalnye-uravneniya/",
"https://egemaximum.ru/ravnosilnye-perexody-v-irracionalnyx-neravenstvax/",
"https://egemaximum.ru/mnozhestva-chisel/",
"https://egemaximum.ru/elementarnyie-funktsii-i-ih-grafiki-lineynaya-funktsiya/",
"https://egemaximum.ru/kvadratichnaya-funktsiya/",
"https://egemaximum.ru/obratnaya-proportsionalnost/",
"https://egemaximum.ru/pokazatelnaya-funktsiya/",
"https://egemaximum.ru/logarifmicheskaya-funktsiya/",
"https://egemaximum.ru/obratnye-trigonometricheskie-funkcii/",
"https://egemaximum.ru/formuly-dlya-resheniya-prostejshix-trigonometricheskix-uravnenij-chast-1/",
"https://egemaximum.ru/prostejshie-trigonometricheskie-neravenstva/",
"https://egemaximum.ru/trigonometricheskiy-krug/",
"https://egemaximum.ru/trigonometricheskie-formulyi/",
"https://egemaximum.ru/formuly-privedeniya/",
"https://egemaximum.ru/grafiki-trigonometricheskix-funkcij-sinusoida/",
"https://egemaximum.ru/grafiki-trigonometricheskix-funkcij-tangens-kotangens/",
"https://egemaximum.ru/proizvodnaya-funkcii/",
"https://egemaximum.ru/proizvodnaya-funktsii-geometricheskiy-smyisl/",
"https://egemaximum.ru/tablitsa-proizvodnyih-pravila-differentsirovaniya-2/",
"https://egemaximum.ru/pervoobraznaya-integral/",
"https://egemaximum.ru/tablica-pervoobraznyx/",
"https://egemaximum.ru/bissektrisa-treugolnika/",
"https://egemaximum.ru/vpisannye-ugly/",
"https://egemaximum.ru/elementyi-treugolnika-vyisotyi/",
"https://egemaximum.ru/xorda-sekushhaya-kasatelnaya/",
"https://egemaximum.ru/elementyi-treugolnika-medianyi/",
"https://egemaximum.ru/podobnye-treugolniki/",
"https://egemaximum.ru/121/",
"https://egemaximum.ru/sinus-kosinus-tangens-v-pryamougolnom-treugolnike/",
"https://egemaximum.ru/treugolnik/",
"https://egemaximum.ru/ravnobedrennyj-treugolnik/",
"https://egemaximum.ru/ravnostoronnij-treugolnik/",
"https://egemaximum.ru/pryamougolnyj-treugolnik/",
"https://egemaximum.ru/teorema-menelaya/",
"https://egemaximum.ru/trapeciya-svojstva-trapecii/",
"https://egemaximum.ru/parallelogramm-svojstva-i-priznaki-parallelogramma/",
"https://egemaximum.ru/pryamougolnik/",
"https://egemaximum.ru/romb-svojstva-i-priznaki-romba/",
"https://egemaximum.ru/kvadrat-2/",
"https://egemaximum.ru/vzaimnoe-raspolozhenie-pryamyx-i-ploskostej-v-prostranstve/",
"https://egemaximum.ru/tela-vrashheniya-konus/",
"https://egemaximum.ru/perpendikulyar-i-naklonnaya/",
"https://egemaximum.ru/parallelnost-pryamyx-i-ploskostej/",
"https://egemaximum.ru/perpendikulyarnost-pryamyx-i-ploskostej/",
"https://egemaximum.ru/piramida/",
"https://egemaximum.ru/prizma-vidy-prizmy/",
"https://egemaximum.ru/piramida-prizma-formulyi-obema-i-ploshhadi-poverhnosti/",
"https://egemaximum.ru/skreshhivayushhiesya-pryamye/",
"https://egemaximum.ru/tela-vrashheniya-formulyi-obema-i-ploshhadi-poverhnosti/",
"https://egemaximum.ru/ugly-v-prostranstve/",
"https://egemaximum.ru/ploshhad-ortogonalnoj-proekcii-mnogougolnika/",
"https://egemaximum.ru/tela-vrashheniya-cilindr/",
"https://egemaximum.ru/teoriya-veroyatnosti-chast-1/",
"https://egemaximum.ru/teoriya-veroyatnosti-chast-2/",
"https://egemaximum.ru/vektora-chast-1/",
"https://egemaximum.ru/vektora-chast-2/",
"https://egemaximum.ru/zadacha-26-trenirovochnoj-raboty-1-ot-19-noyabrya-2013-v-formate-gia/",
"https://egemaximum.ru/planimetricheskaya-zadacha-iz-probnogo-ekzamena-v-mgu-v-2013-g/",
"https://egemaximum.ru/gia-zadacha-ii-chasti/",
"https://egemaximum.ru/category/gia/",
"https://egemaximum.ru/gia-geometricheskaya-zadacha-na-svoystvo-bissektrisyi/",
"https://egemaximum.ru/gia-28-maya-2013-zadanie-26/",
"https://egemaximum.ru/zadachi-12-sostavnye-mnogogranniki/",
"https://egemaximum.ru/trenirovochnoe-zadanie-s1-v-formate-ege-po-matematike/",
"https://egemaximum.ru/s1-iz-realnogo-ege-2013-ot-3-iyunya/",
"https://egemaximum.ru/s2-trenirovochnoj-raboty-56-a-larina/",
"https://egemaximum.ru/s2-diagnosticheskoj-raboty-po-matematike-ot-12-dekabrya-2013/",
"https://egemaximum.ru/s2-na-naxozhdenie-otnosheniya-obemov-mnogogrannikov/",
"https://egemaximum.ru/zadacha-s2-iz-t-r-52-larina/",
"https://egemaximum.ru/s2-iz-t-r-1-v-formate-ege-ot-14-noyabrya-2013-goda/",
"https://egemaximum.ru/s2-iz-trenirovochnyx-rabot-larina/",
"https://egemaximum.ru/videorazbor-s2-ege-po-matematike/",
"https://egemaximum.ru/zadanie-s2-iz-demo-varianta-ege-po-matematike-2014/",
"https://egemaximum.ru/s2-iz-realnogo-ege-2013-ot-3-iyunya/",
"https://egemaximum.ru/s2-dosrochnyiy-ege-2013/",
"https://egemaximum.ru/s2-ugol-mezhdu-ploskostyami-v-prizme/",
"https://egemaximum.ru/s3-iz-demonstracionnogo-varianta-ege-po-matematike-2014/",
"https://egemaximum.ru/s3-iz-ege-2013-ot-3-iyunya/",
"https://egemaximum.ru/videoreshenie-zadachi-s4-ege-po-matematike/",
"https://egemaximum.ru/videorazbor-s4-ege-po-matematike/",
"https://egemaximum.ru/s4-iz-trenirovochnoj-raboty-53-a-larina/",
"https://egemaximum.ru/zadanie-s4-iz-t-r-larina/",
"https://egemaximum.ru/demo-versiya-ege-po-matematike-2014/",
"https://egemaximum.ru/s4-iz-ege-2013-ot-3-iyunya/",
"https://egemaximum.ru/zadacha-ob-okruzhnosti-kasayushheysya-dvuh-drugih-i-ih-obshhey-kasatelnoy/",
"https://egemaximum.ru/vnevpisannyie-okruzhnosti-s4/",
"https://egemaximum.ru/zadanie-s5-iz-raboty-1-ege-2014/",
"https://egemaximum.ru/videoreshenie-zadaniya-s5-iz-demo-varianta-ege-2014/",
"https://egemaximum.ru/zadanie-s5-ege-po-matematike/",
"https://egemaximum.ru/s5-iz-ege-2013-ot-3-iyunya/",
"https://egemaximum.ru/c5-parametricheskoe-uravnenie/",
"https://egemaximum.ru/ege-s5-sistema-s-parametrom/",
"https://egemaximum.ru/s5-iz-dosrochnogo-ege-2013/",
"https://egemaximum.ru/zadacha-s6-iz-demo-varianta-ege-po-matematike-2014/",
"https://egemaximum.ru/neravestvo-soderzhashhee-v-sebe-neskolko-modulej/",
"https://egemaximum.ru/test-po-zadacham-1/",
"https://egemaximum.ru/test-po-zadacham-3-chtenie-grafikov/",
"https://egemaximum.ru/test-po-zadacham-4-treugolnik/",
"https://egemaximum.ru/test-po-zadacham-4-pryamougolnik/",
"https://egemaximum.ru/test-po-zadacham-4-romb/",
"https://egemaximum.ru/test-po-zadacham-4-parallelogramm/",
"https://egemaximum.ru/test-po-zadacham-4-proizvolnyj-chetyrexugolnik-mnogougolnik/",
"https://egemaximum.ru/test-po-zadacham-4-trapeciya/",
"https://egemaximum.ru/test-po-zadacham-4-krug/",
"https://egemaximum.ru/test-po-zadacham-4-vektora/",
"https://egemaximum.ru/test-po-zadacham-4-koordinatnaya-ploskost/",
"https://egemaximum.ru/test-1-po-zadacham-5/",
"https://egemaximum.ru/test-2-po-zadacham-5/",
"https://egemaximum.ru/test-1-po-zadacham-6/",
"https://egemaximum.ru/test-2-po-zadacham-6/",
"https://egemaximum.ru/test-3-po-zadacham-6/",
"https://egemaximum.ru/test-4-po-zadacham-6/",
"https://egemaximum.ru/test-po-teme-ravnobedrennyj-treugolnik-vychislenie-uglov-i-dlin/",
"https://egemaximum.ru/test-po-teme-treugolnik-vychislenie-uglov-i-dlin/",
"https://egemaximum.ru/parallelogramm/",
"https://egemaximum.ru/test-po-teme-trapeciya/",
"https://egemaximum.ru/test-po-teme-romb-pryamougolnik/",
"https://egemaximum.ru/vpisannye-centralnye-ugly/",
"https://egemaximum.ru/test-xorda-sekushhaya-kasatelnaya/",
"https://egemaximum.ru/test-okruzhnost-vpisannaya-v-treugolnik-okruzhnost-opisannaya-okolo-treugolnika/",
"https://egemaximum.ru/test-okruzhnost-i-mnogougolnik/",
"https://egemaximum.ru/test-v9-kasatelnaya-k-grafiku-funkcii/",
"https://egemaximum.ru/test-primenenie-proizvodnoj-k-issledovaniyu-funkcii/",
"https://egemaximum.ru/test-8-pervoobraznaya/",
"https://egemaximum.ru/test-zadachi-9-piramida-prizma/",
"https://egemaximum.ru/test-sostavnye-mnogogranniki/",
"https://egemaximum.ru/test-konus-cilindr/",
"https://egemaximum.ru/test-preobrazovanie-racionalnyx-vyrazhenij/",
"https://egemaximum.ru/test-preobrazovanie-irracionalnyx-vyrazhenij/",
"https://egemaximum.ru/test-preobrazovanie-pokazatelnyx-vyrazhenij/",
"https://egemaximum.ru/test-po-teme-preobrazovanie-logarifmicheskix-vyrazhenij/",
"https://egemaximum.ru/test-po-zadacham-v11-trigonometricheskie-vyrazheniya/",
"https://egemaximum.ru/test-1-po-zadacham-11/",
"https://egemaximum.ru/test-2-po-zadacham-11/",
"https://egemaximum.ru/test-3-po-zadacham-11/",
"https://egemaximum.ru/test-4-po-zadacham-11/",
"https://egemaximum.ru/test-po-tekstovym-zadacham-na-smesi-i-splavy/",
"https://egemaximum.ru/test-3-po-zadacham-13/",
"https://egemaximum.ru/test-po-zadacham-na-progressiyu-13/",
"https://egemaximum.ru/test-po-teme-zadachi-na-srednyuyu-skorost/",
"https://egemaximum.ru/test-po-zadacham-na-dvizhenie-po-okruzhnosti/",
"https://egemaximum.ru/test-5-po-zadacham-13/",
"https://egemaximum.ru/test-po-zadacham-11-zadachi-na-dvizhenie-po-vode/",
"https://egemaximum.ru/test-po-zadacham-12-kub/",
"https://egemaximum.ru/test-po-zadacham-12-piramida/",
"https://egemaximum.ru/test-po-zadacham-12-sostavnye-mnogogranniki/",
"https://egemaximum.ru/test-po-zadacham-12-cilindr/",
"https://egemaximum.ru/test-po-zadacham-12-konus/",
"https://egemaximum.ru/test-po-zadacham-12-shar/",
"https://egemaximum.ru/test-po-teme-arifmeticheskaya-progressiya-formula-n-go-chlena/",
"https://egemaximum.ru/test-po-teme-summa-arifmeticheskoj-progressii/",
"https://egemaximum.ru/test-geometricheskaya-progressiya/",
"https://egemaximum.ru/test-metod-intervalov-v-racionalnyx-neravenstvax/",
"https://egemaximum.ru/test-po-teme-metod-intervalov-v-drobno-racionalnyx-neravenstvax/",
"https://egemaximum.ru/test-po-teme-modul-prostejshie-uravneniya-s-modulem/",
"https://egemaximum.ru/test-prostejshie-neravenstva-s-modulem/",
"https://egemaximum.ru/6-prostejshie-trigonometricheskie-uravneniya/",
"https://egemaximum.ru/zadanie-17-dosrochnyiy-ege-2018/",
"https://egemaximum.ru/zadanie-19-dosrochnyiy-ege-2018/",
"https://egemaximum.ru/zadanie-16-dosrochnyiy-ege-2018/",
"https://egemaximum.ru/zadanie-14-dosrochnyiy-ege-2018/",
"https://egemaximum.ru/zadanie-13-dosrochnyiy-ege-2018/",
"https://egemaximum.ru/zadanie-18-dosrochnyiy-ege-2018/",
"https://egemaximum.ru/zadanie-15-dosrochnyiy-ege-2018/",
"https://egemaximum.ru/dosrochnyiy-ege-po-matematike-2018-ot-31-marta/",
"https://egemaximum.ru/stati-2/page/2/",
"https://egemaximum.ru/stati-2/page/3/",
"https://egemaximum.ru/stati-2/page/4/",
"https://egemaximum.ru/stati-2/page/53/",
"https://egemaximum.ru/stati-2/page/54/",
"https://egemaximum.ru/stati-2/page/55/",
"https://egemaximum.ru/25613-2/",
"https://egemaximum.ru/zadanie-13-chasti-s-dosrochnaya-volna-2018-rezervnyiy-den/",
"https://egemaximum.ru/zadanie-14-chasti-s-dosrochnaya-volna-2018-rezervnyiy-den/",
"https://egemaximum.ru/zadanie-15-chasti-s-dosrochnaya-volna-2018-rezervnyiy-den/",
"https://egemaximum.ru/zadanie-16-chasti-s-dosrochnaya-volna-2018-rezervnyiy-den/",
"https://egemaximum.ru/zadanie-17-chasti-s-dosrochnaya-volna-2018-rezervnyiy-den/",
"https://egemaximum.ru/zadanie-18-chasti-s-dosrochnaya-volna-2018-rezervnyiy-den/",
"https://egemaximum.ru/zadanie-19-chasti-s-dosrochnaya-volna-2018-rezervnyiy-den/",
"https://egemaximum.ru/chislovye-i-bukvennye-irracionalnye-vyrazheniya/",
"https://egemaximum.ru/dosrochnyj-ege-po-matematike-ot-28-marta-2016/",
"https://egemaximum.ru/trenirovochnaya-rabota-po-matematike-ot-27-aprelya-2016/",
"https://egemaximum.ru/21894-2/",
"https://egemaximum.ru/rezerv16/",
"https://egemaximum.ru/diagnosticheskaya-rabota-po-matematike-v-formate-ege-ot-22-aprelya-2015-goda/",
"https://egemaximum.ru/s1-13-dosrochnyiy-ege-po-matematike-ot-31-marta-2017/",
"https://egemaximum.ru/ege-po-matematike-profil-ot-2-iyunya-2017-goda/",
"https://egemaximum.ru/rezerv17/",
"https://egemaximum.ru/dvi-v-mgu-2016/",
"https://egemaximum.ru/dosrochnyj-vstupitelnyj-ekzamen-v-mgu-ot-4-aprelya-2015/",
"https://egemaximum.ru/dopolnitelnyiy-vstupitelnyiy-ekzamen-v-mgu-iyul-2015/",
"https://egemaximum.ru/category/01/",
"https://egemaximum.ru/zadania-1-2/",
"https://egemaximum.ru/zadania-1/",
"https://egemaximum.ru/category/02/",
"https://egemaximum.ru/zadania-2/",
"https://egemaximum.ru/category/04/",
"https://egemaximum.ru/zadaniya-4-trapeciya-chast-6/",
"https://egemaximum.ru/zadaniya-4-proizvolnyj-chetyrexugolnik-chast-5/",
"https://egemaximum.ru/zadaniya-4-planimetria-na-kletochkah/",
"https://egemaximum.ru/zadaniya-4-treugolnik/",
"https://egemaximum.ru/zadaniya-4-pryamougolnik-chast-2/",
"https://egemaximum.ru/zadaniya-4-romb-chast-3/",
"https://egemaximum.ru/zadaniya-4-parallelogramm-chast-4/",
"https://egemaximum.ru/zadaniya-4-mnogougolniki-chast-7/",
"https://egemaximum.ru/zadaniya-4-krug-chast-8/",
"https://egemaximum.ru/zadaniya-4-vektory-chast-9/",
"https://egemaximum.ru/zadaniya-4-koordinatnaya-ploskost-chast-10/",
"https://egemaximum.ru/category/05/",
"https://egemaximum.ru/zadaniya-5-teoriya-veroyatnosti-chast-2/",
"https://egemaximum.ru/zadaniya-5-teoriya-veroyatnosti/",
"https://egemaximum.ru/category/06/",
"https://egemaximum.ru/6-prostejshie-racionalnye-uravneniya/",
"https://egemaximum.ru/6-prostejshie-irracionalnye-uravneniya/",
"https://egemaximum.ru/6-prostejshie-pokazatelnye-uravneniya/",
"https://egemaximum.ru/6-prostejshie-logarifmicheskie-uravneniya/",
"https://egemaximum.ru/category/07/",
"https://egemaximum.ru/pryamougolnyj-treugolnik-vychislenie-dlin/",
"https://egemaximum.ru/pryamougolnyj-treugolnik-vychislenie-uglov/",
"https://egemaximum.ru/ravnobedrennyj-treugolnik-vychislenie-uglov-i-dlin/",
"https://egemaximum.ru/treugolnik-vychislenie-uglov-i-dlin/",
"https://egemaximum.ru/parallelogramm-zadachi-7/",
"https://egemaximum.ru/trapeciya-zadachi-kategoriya-v8/",
"https://egemaximum.ru/zadachi-7-romb/",
"https://egemaximum.ru/zadachi-7-sekushhaya-xorda-kasatelna/",
"https://egemaximum.ru/7-zadachi-na-kombinaciyu-okruzhnosti-i-treugolnika/",
"https://egemaximum.ru/zadachi-7-mnogougolnik-i-okruzhnost/",
"https://egemaximum.ru/category/08/",
"https://egemaximum.ru/8-fizicheskij-smysl-proizvodnoj/",
"https://egemaximum.ru/8-geometricheskij-smysl-proizvodnoj-kasatelnaya/",
"https://egemaximum.ru/8-primenenie-proizvodnoj/",
"https://egemaximum.ru/8-pervoobraznaya/",
"https://egemaximum.ru/category/09/",
"https://egemaximum.ru/prizma/",
"https://egemaximum.ru/9-prizma/",
"https://egemaximum.ru/zadaniya-12-piramida/",
"https://egemaximum.ru/09-piramida/",
"https://egemaximum.ru/zadaniya-9-mnogogranniki/",
"https://egemaximum.ru/zadachi-12-cilindr/",
"https://egemaximum.ru/zadaniya-12-konus/",
"https://egemaximum.ru/zadanie-9-konus-cilindr/",
"https://egemaximum.ru/zadachi-12-shar/",
"https://egemaximum.ru/zadachi-12-kub-parallelepiped/",
"https://egemaximum.ru/category/10/",
"https://egemaximum.ru/chislovye-i-bukvennye-pokazatelnye-vyrazheniya/",
"https://egemaximum.ru/v11-logarifmicheskie-vyrazheniya/",
"https://egemaximum.ru/vychislenie-znachenij-trigonometricheskix-vyrazhenij/",
"https://egemaximum.ru/chislovye-trigonometricheskie-vyrazheniya/",
"https://egemaximum.ru/zadachi-v11-preobrazovanie-racionalnyx-vyrazhenij/",
"https://egemaximum.ru/category/11/",
"https://egemaximum.ru/11/",
"https://egemaximum.ru/zadachi-11-ege-po-matematike-chast-2/",
"https://egemaximum.ru/11-3/",
"https://egemaximum.ru/11-4/",
"https://egemaximum.ru/category/13/",
"https://egemaximum.ru/tekstovyie-zadachi-na-srednyuyu-skorost/",
"https://egemaximum.ru/13-zadachi-na-progressiyu/",
"https://egemaximum.ru/zadachi-na-dvizhenie-po-okruzhnosti/",
"https://egemaximum.ru/zadachi-na-dvizhenie-po-vode/",
"https://egemaximum.ru/13-zadachi-na-rabotu/",
"https://egemaximum.ru/13-5/",
"https://egemaximum.ru/13-zadachi-na-smesi-i-splavy/",
"https://egemaximum.ru/category/14/",
"https://egemaximum.ru/14-issledovanie-funkcii-bez-primeneniya-proizvodnoj/",
"https://egemaximum.ru/14-issledovanie-funkcii/",
"https://egemaximum.ru/category/15/",
"https://egemaximum.ru/zadacha-s1-iz-demo-varianta-ege-2014/",
"https://egemaximum.ru/zadanie-s1-pokazatelnoe-uravnenie/",
"https://egemaximum.ru/zadacha-s1-diagnosticheskoj-raboty-ot-12-dekabrya-2013-11-klass/",
"https://egemaximum.ru/s1-s-otborom-kornej-na-otrezke/",
"https://egemaximum.ru/s1-trenirovochnoj-raboty-ot-28-yanvarya-2014-g/",
"https://egemaximum.ru/s1-irracionalnoe-uravnenie-trigonometriya/",
"https://egemaximum.ru/zadanie-15-s1-iz-trenirovochnogo-varianta-86-a-larina/",
"https://egemaximum.ru/zadanie-15-s1-iz-trenirovochnoj-raboty-88-a-larina/",
"https://egemaximum.ru/zadanie-15-s1-t-r-89-a-larina/",
"https://egemaximum.ru/zadanie-15-s1-iz-t-r-91-a-larina/",
"https://egemaximum.ru/zadanie-15-s1-t-r-92-a-larina/",
"https://egemaximum.ru/zadanie-15-s1-t-r-93-a-larina/",
"https://egemaximum.ru/zadanie-15-s1-t-r-94-a-larina/",
"https://egemaximum.ru/zadanie-15-s1-t-r-95-a-larina/",
"https://egemaximum.ru/zadanie-15-s1-t-r-96-a-larina/",
"https://egemaximum.ru/zadanie-15-s1-t-r-97-a-larina/",
"https://egemaximum.ru/zadanike-15-t-r-99-a-larina/",
"https://egemaximum.ru/zadanie-15-t-r-101-a-larina/",
"https://egemaximum.ru/zadanie-15-t-r-100-a-larina/",
"https://egemaximum.ru/zadanie-15-t-r-102-a-larina/",
"https://egemaximum.ru/zadanie-15-t-r-103-a-larina/",
"https://egemaximum.ru/zadanie-15-t-r-104-a-larina/",
"https://egemaximum.ru/zadanie-15-t-r-105-a-larina/",
"https://egemaximum.ru/zadanie-15-t-r-106-a-larina/",
"https://egemaximum.ru/zadanie-15-t-r-107-a-larina/",
"https://egemaximum.ru/zadanie-15-t-r-108-a-larina/",
"https://egemaximum.ru/zadanie-15-t-r-109-a-larina/",
"https://egemaximum.ru/zadanie-15-t-r-110-a-larina/",
"https://egemaximum.ru/zadanie-15-t-r-111-a-larina/",
"https://egemaximum.ru/zadanie-15-t-r-112-a-larina/",
"https://egemaximum.ru/zadanie-15-t-r-113-a-larina/",
"https://egemaximum.ru/zadanie-15-t-r-114-a-larina/",
"https://egemaximum.ru/zadanie-15-t-r-115-a-larina/",
"https://egemaximum.ru/zadanie-15-t-r-116-a-larina/",
"https://egemaximum.ru/zadanie-15-t-r-118-a-larina/",
"https://egemaximum.ru/zadanie-15-t-r-119-a-larina/",
"https://egemaximum.ru/zadanie-15-t-r-120-a-larina/",
"https://egemaximum.ru/zadanie-15-iz-realnogo-ege-po-matematike-ot-4-iyunya-2015/",
"https://egemaximum.ru/putevoditel-po-zadacham-s1/",
"https://egemaximum.ru/zadanie-13-t-r-a-larina-161/",
"https://egemaximum.ru/23098-2/",
"https://egemaximum.ru/zadanie-13-t-r-163-a-larina/",
"https://egemaximum.ru/zadanie-13-t-r-165-a-larina/",
"https://egemaximum.ru/zadanie-13-t-r-166-a-larina/",
"https://egemaximum.ru/zadanie-13-t-r-167-a-larina/",
"https://egemaximum.ru/168-13/",
"https://egemaximum.ru/zadanie-13-t-r-170-a-larina/",
"https://egemaximum.ru/zadanie-13-t-r-171-a-larina/",
"https://egemaximum.ru/zadanie-13-t-r-176-a-larina/",
"https://egemaximum.ru/zadanie-13-t-r-181-a-larina/",
"https://egemaximum.ru/zadanie-13-t-r-173-a-larina/",
"https://egemaximum.ru/zadanie-13-t-r-183-a-larina/",
"https://egemaximum.ru/zadanie-13-t-r-184-a-larina/",
"https://egemaximum.ru/zadanie-13-t-r-194-a-larina/",
"https://egemaximum.ru/zadanie-13-t-r-197-a-larina/",
"https://egemaximum.ru/zadanie-13-t-r-202-a-larina/",
"https://egemaximum.ru/25724-2/",
"https://egemaximum.ru/zadanie-13-t-r-204-a-larina/",
"https://egemaximum.ru/zadanie-13-t-r-205-a-larina/",
"https://egemaximum.ru/zadanie-13-t-r-207-a-larina/",
"https://egemaximum.ru/zadanie-13-t-r-209-a-larina/",
"https://egemaximum.ru/zadanie-13-t-r-209-a-larina-2/",
"https://egemaximum.ru/zadanie-13-t-r-212-a-larina/",
"https://egemaximum.ru/zadanie-13-t-r-213-a-larina/",
"https://egemaximum.ru/zadanie-13-t-r-215-a-larina/",
"https://egemaximum.ru/zadanie-13-t-r-220-a-larina/",
"https://egemaximum.ru/zadanie-13-t-r-223-a-larina/",
"https://egemaximum.ru/zadanie-13-t-r-224-a-larina/",
"https://egemaximum.ru/category/16/",
"https://egemaximum.ru/zadacha-iz-probnogo-ekzamena-v-mgu-2013/",
"https://egemaximum.ru/s2-iz-vtoroj-volny-sdachi-ege-2013/",
"https://egemaximum.ru/nu-ochen-krasivoe-zadanie-s2-ege-po-matematike/",
"https://egemaximum.ru/s2-trenirovochnoj-raboty-ot-28-yanvarya-2014/",
"https://egemaximum.ru/s2-na-naxozhdenie-radiusa-vpisannoj-v-tetraedr-sfery/",
"https://egemaximum.ru/s2-ne-dlya-slabonervnyx/",
"https://egemaximum.ru/c2-sfera-vpisana-v-piramidu/",
"https://egemaximum.ru/s2-i-snova-sfera-piramida/",
"https://egemaximum.ru/s2-po-novomu-16-iz-trenirovochnogo-varianta-84-a-larina/",
"https://egemaximum.ru/zadanie-16-s2-po-staromu/",
"https://egemaximum.ru/16-s2-iz-trenirovochnoj-raboty-86-a-larina/",
"https://egemaximum.ru/zadanie-16-s2-iz-t-r-87-a-larina/",
"https://egemaximum.ru/zadanie-16-s2-iz-t-r-89-a-larina/",
"https://egemaximum.ru/zadanie-16-s2-iz-t-r-91-a-larina/",
"https://egemaximum.ru/zadanie-16-s2-t-r-92-a-larina/",
"https://egemaximum.ru/zadanie-16-s2-t-r-93-a-larina/",
"https://egemaximum.ru/zadanie-16-s2-t-r-94-a-larina/",
"https://egemaximum.ru/zadanie-16-s2-t-r-95-a-larina/",
"https://egemaximum.ru/zadanie-16-s2-t-r-96-a-larina/",
"https://egemaximum.ru/zadanie-16-s2-t-r-97-a-larina/",
"https://egemaximum.ru/zadanie-16-t-r-99-a-larina/",
"https://egemaximum.ru/zadanie-16-t-r-101-a-larina/",
"https://egemaximum.ru/zadanie-16-t-r-100-a-larina/",
"https://egemaximum.ru/zadanie-16-t-r-102-a-larina/",
"https://egemaximum.ru/zadanie-16-t-r-103-a-larina/",
"https://egemaximum.ru/zadanie-16-t-r-104-a-larina/",
"https://egemaximum.ru/zadanie-16-t-r-105-a-larina/",
"https://egemaximum.ru/zadanie-16-t-r-106-a-larina/",
"https://egemaximum.ru/zadanie-16-t-r-107-a-larina/",
"https://egemaximum.ru/zadanie-16-t-r-109-a-larina/",
"https://egemaximum.ru/zadanie-16-t-r-110-a-larina/",
"https://egemaximum.ru/zadanie-16-t-r-111-a-larina/",
"https://egemaximum.ru/zadanie-16-t-r-112-a-larina/",
"https://egemaximum.ru/zadanie-16-t-r-113-a-larina/",
"https://egemaximum.ru/zadanie-16-t-r-114-a-larina/",
"https://egemaximum.ru/zadanie-16-t-r-a-larina/",
"https://egemaximum.ru/zadanie-16-t-r-116-a-larina/",
"https://egemaximum.ru/zadanie-16-t-r-118-a-larina/",
"https://egemaximum.ru/zadanie-16-t-r-119-a-larina/",
"https://egemaximum.ru/zadanie-16-t-r-120-a-larina/",
"https://egemaximum.ru/zadanie-16-trenirovochnoj-raboty-120-a-larina/",
"https://egemaximum.ru/zadanie-16-realnogo-ege-po-matematike-ot-4-iyunya-2015/",
"https://egemaximum.ru/putevoditel-po-zadacham-s2-ctereometriya-chast-ii/",
"https://egemaximum.ru/zadanie-14-t-r-a-larina-161/",
"https://egemaximum.ru/23125-2/",
"https://egemaximum.ru/zadanie-14-t-r-163-a-larina/",
"https://egemaximum.ru/zadanie-14-t-r-165-a-larina/",
"https://egemaximum.ru/zadanie-14-t-r-166-a-larina/",
"https://egemaximum.ru/zadanie-14-t-r-167-a-larina/",
"https://egemaximum.ru/zadanie-14-t-r-168-a-larina/",
"https://egemaximum.ru/zadanie-14-t-r-170-a-larina/",
"https://egemaximum.ru/zadanie-14-t-r-171-a-larina/",
"https://egemaximum.ru/zadanie-14-t-r-173-a-larina/",
"https://egemaximum.ru/zadanie-14-t-r-176-a-larina/",
"https://egemaximum.ru/zadanie-14-t-r-181-a-larina/",
"https://egemaximum.ru/trenirovochnaya-rabota-ot-26-01-2017-chast-s-14/",
"https://egemaximum.ru/zadanie-14-t-r-183-a-larina/",
"https://egemaximum.ru/zadanie-14-t-r-184-a-larina/",
"https://egemaximum.ru/s2-14-dosrochnyiy-ege-po-matematike-ot-31-marta-2017/",
"https://egemaximum.ru/zadanie-16-t-r-194-a-larina/",
"https://egemaximum.ru/zadanie-14-t-r-194-a-larina/",
"https://egemaximum.ru/zadanie-14-t-r-196-a-larina/",
"https://egemaximum.ru/zadanie-14-t-r-197-a-larina/",
"https://egemaximum.ru/zadanie-14-t-r-202-a-larina/",
"https://egemaximum.ru/zadanie-14-t-r-203-a-larina/",
"https://egemaximum.ru/zadanie-14-t-r-204-a-larina/",
"https://egemaximum.ru/zadanie-14-t-r-205-a-larina/",
"https://egemaximum.ru/zadanie-14-t-r-207-a-larina/",
"https://egemaximum.ru/zadanie-14-t-r-209-a-larina/",
"https://egemaximum.ru/zadanie-14-t-r-210-a-larina/",
"https://egemaximum.ru/zadanie-14-t-r-212-a-larina/",
"https://egemaximum.ru/zadanie-13-t-r-213-a-larina-2/",
"https://egemaximum.ru/26515-2/",
"https://egemaximum.ru/zadanie-14-t-r-220-a-larina/",
"https://egemaximum.ru/zadanie-14-t-r-223-a-larina/",
"https://egemaximum.ru/zadanie-14-t-r-224-a-larina/",
"https://egemaximum.ru/category/17/",
"https://egemaximum.ru/s3-logarifmicheskoe-neravenstvo/",
"https://egemaximum.ru/c3-logarifmicheskoe-neravenstvo-chast-2/",
"https://egemaximum.ru/s3-logarifmicheskoe-neravenstvo-chast-3/",
"https://egemaximum.ru/metod-racionalizacii-chast-3-primery/",
"https://egemaximum.ru/s3-iz-trenirovochnoj-raboty-ot-14-noyabrya-2013-11-klass/",
"https://egemaximum.ru/s3-diagnosticheskoj-raboty-ot-12-dekabrya-2013-goda/",
"https://egemaximum.ru/diagnosticheskaya-rabota-dekabr-2013-zadanie-s3/",
"https://egemaximum.ru/s3-s-logarifmami-i-modulyami/",
"https://egemaximum.ru/s3-trenirovochnoj-raboty-ot-28-yanvarya-2013-goda/",
"https://egemaximum.ru/c3-t-r-66-larina/",
"https://egemaximum.ru/17-s3-trenirovochnogo-varianta-85-a-larina/",
"https://egemaximum.ru/zadanie-17-s3-iz-trenirovochnoj-raboty-86-a-larina/",
"https://egemaximum.ru/17-tr-84-a-larina/",
"https://egemaximum.ru/zadanie-17-s3-iz-t-r-87-a-larina/",
"https://egemaximum.ru/zadanie-17-s3-iz-trenirovochnogo-varianta-88-a-larina/",
"https://egemaximum.ru/zadanie-17-c3-trenirovochnoj-raboty-89-a-larina/",
"https://egemaximum.ru/zadanie-17-s3-iz-t-r-91-a-larina/",
"https://egemaximum.ru/zadanie-17-s3-t-r-92-a-larina/",
"https://egemaximum.ru/zadanie-17-s3-t-r-93-a-larina/",
"https://egemaximum.ru/zadanie-17-s3-t-r-94-a-larina/",
"https://egemaximum.ru/zadanie-17-s3-t-r-95-a-larina/",
"https://egemaximum.ru/zadanie-17-s3-t-r-96-a-larina/",
"https://egemaximum.ru/zadanie-17-s3-t-r-97-a-larina/",
"https://egemaximum.ru/zadanie-17-t-r-99-a-larina/",
"https://egemaximum.ru/zadanie-17-t-r-101-a-larina/",
"https://egemaximum.ru/zadanie-17-t-r-100-a-larina/",
"https://egemaximum.ru/zadanie-17-t-r-102-a-larina/",
"https://egemaximum.ru/zadanie-17-t-r-103-a-larina/",
"https://egemaximum.ru/zadanie-17-t-r-104-a-larina/",
"https://egemaximum.ru/zadanie-17-t-r-105-a-larina/",
"https://egemaximum.ru/zadanie-17-t-r-106-a-larina/",
"https://egemaximum.ru/zadanie-17-t-r-107-a-larina/",
"https://egemaximum.ru/zadanie-17-t-r-108-a-larina/",
"https://egemaximum.ru/zadanie-17-t-r-109-a-larina/",
"https://egemaximum.ru/zadanie-17-t-r-110-a-larina/",
"https://egemaximum.ru/zadanie-17-t-r-111-a-larina/",
"https://egemaximum.ru/zadanie-17-t-r-112-a-larina/",
"https://egemaximum.ru/zadenie-17-t-r-113-a-larina/",
"https://egemaximum.ru/zadanie-17-t-r-114-a-larina/",
"https://egemaximum.ru/zadanie-17-t-r-115-a-larina/",
"https://egemaximum.ru/zadanie-17-t-r-116-a-larina/",
"https://egemaximum.ru/zadanie-17-t-r-118-a-larina/",
"https://egemaximum.ru/zadanie-17-t-r-119-a-larina/",
"https://egemaximum.ru/zadanie-17-t-r-120-a-larina/",
"https://egemaximum.ru/zadanie-17-iz-realnogo-ege-po-matematike-ot-4-iyunya-2015/",
"https://egemaximum.ru/sbornik-zadanij-s3-15-dlya-podgotovki-k-ege/",
"https://egemaximum.ru/putevoditel-po-neravenstvam-zadachi-15-ege-po-matematike/",
"https://egemaximum.ru/zadanie-15-t-r-a-larina-161/",
"https://egemaximum.ru/zadanie-15-t-r-a-larina-162/",
"https://egemaximum.ru/zadanie-15-t-r-163-a-larina/",
"https://egemaximum.ru/zadanie-15-t-r-165-a-larina/",
"https://egemaximum.ru/zadanie-15-t-r-166-a-larina/",
"https://egemaximum.ru/zadanie-15-t-r-167-a-larina/",
"https://egemaximum.ru/zadanie-15-t-r-168-a-larina/",
"https://egemaximum.ru/zadanie-15-t-r-170-a-larina/",
"https://egemaximum.ru/zadanie-15-t-r-171-a-larina/",
"https://egemaximum.ru/zadanie-15-t-r-173-a-larina/",
"https://egemaximum.ru/zadanie-15-t-r-176-a-larina/",
"https://egemaximum.ru/zadanie-15-t-r-181-a-larina/",
"https://egemaximum.ru/trenirovochnaya-rabota-ot-26-01-2017-chast-s-15/",
"https://egemaximum.ru/zadanie-15-t-r-183-a-larina/",
"https://egemaximum.ru/s3-15-dosrochnyiy-ege-po-matematike-ot-31-marta-2017/",
"https://egemaximum.ru/zadanie-15-t-r-194-a-larina/",
"https://egemaximum.ru/zadanie-13-t-r-196-a-larina/",
"https://egemaximum.ru/zadanie-15-t-r-196-a-larina/",
"https://egemaximum.ru/zadanie-15-t-r-197-a-larina/",
"https://egemaximum.ru/zadanie-15-t-r-202-a-larina/",
"https://egemaximum.ru/25731-2/",
"https://egemaximum.ru/zadanie-15-t-r-204-a-larina/",
"https://egemaximum.ru/zadanie-15-t-r-205-a-larina/",
"https://egemaximum.ru/zadanie-15-t-r-207-a-larina/",
"https://egemaximum.ru/26057-2/",
"https://egemaximum.ru/26116-2/",
"https://egemaximum.ru/zadanie-15-t-r-212-a-larina/",
"https://egemaximum.ru/zadanie-15-t-r-213-a-larina/",
"https://egemaximum.ru/zadanie-15-t-r-215-a-larina/",
"https://egemaximum.ru/zadanie-15-t-r-220-a-larina/",
"https://egemaximum.ru/zadanie-15-t-r-223-a-larina/",
"https://egemaximum.ru/zadanie-15-t-r-224-a-larina/",
"https://egemaximum.ru/category/18/",
"https://egemaximum.ru/c4-dosrochnyiy-ege-2013/",
"https://egemaximum.ru/s4-iz-trenirovochnoj-raboty-1-ot-14-noyabrya-2013-g/",
"https://egemaximum.ru/zadacha-s4-diagnosticheskoj-raboty-ot-12-dekabrya-2013-11-klass/",
"https://egemaximum.ru/c4-peresekayushhiesya-okruzhnosti-s-obshhej-kasatelnoj/",
"https://egemaximum.ru/s4-trenirovochnoj-raboty-ot-28-yanvarya-2014-g/",
"https://egemaximum.ru/s4-novogo-obrazca/",
"https://egemaximum.ru/c4-novogo-obrazca/",
"https://egemaximum.ru/18-t-r-84-a-larina/",
"https://egemaximum.ru/18-s4-po-staromu-iz-t-r-85-a-larina/",
"https://egemaximum.ru/zadanie-18-s4-iz-t-r-87-a-larina/",
"https://egemaximum.ru/zadanie-18-s4-iz-trenirovochnogo-varianta-88-a-larina/",
"https://egemaximum.ru/zadanie-18-s4-iz-t-r-89-a-larina/",
"https://egemaximum.ru/zadanie-18-s4-iz-t-r-91-a-larina/",
"https://egemaximum.ru/zadanie-18-s4-t-r-92-a-larina/",
"https://egemaximum.ru/zadanie-18-s4-t-r-93-a-larina/",
"https://egemaximum.ru/zadanie-18-s4-t-r-94-a-larina/",
"https://egemaximum.ru/zadanie-18-s4-t-r-95-a-larina/",
"https://egemaximum.ru/zadanie-18-s4-t-r-96-a-larina/",
"https://egemaximum.ru/zadanie-18-s4-t-r-97-a-larina/",
"https://egemaximum.ru/zadanie-18-t-r-99-a-larina/",
"https://egemaximum.ru/zadanie-18-t-r-101-a-larina/",
"https://egemaximum.ru/zadanie-18-t-r-100-a-larina/",
"https://egemaximum.ru/zadanie-18-t-r-103-a-larina/",
"https://egemaximum.ru/zadanie-18-t-r-104-a-larina/",
"https://egemaximum.ru/zadanie-18-t-r-105-a-larina/",
"https://egemaximum.ru/zadanie-18-t-r-106-a-larina/",
"https://egemaximum.ru/zadanie-18-t-r-107-a-larina/",
"https://egemaximum.ru/zadanie-18-t-r-108-a-larina/",
"https://egemaximum.ru/zadanie-18-t-r-109-a-larina/",
"https://egemaximum.ru/zadanie-18-t-r-110-a-larina/",
"https://egemaximum.ru/zadanie-18-t-r-111-a-larina/",
"https://egemaximum.ru/zadanie-18-t-r-112-a-larina/",
"https://egemaximum.ru/zadanie-18-t-r-113-a-larina/",
"https://egemaximum.ru/zadanie-18-t-r-114-a-larina/",
"https://egemaximum.ru/zadanie-18-t-r-115-a-larina/",
"https://egemaximum.ru/zadanie-18-t-r-116-a-larina/",
"https://egemaximum.ru/zadanie-18-t-r-118-a-larina/",
"https://egemaximum.ru/zadanie-18-t-r-119-a-larina/",
"https://egemaximum.ru/zadanie-18-t-r-120-a-larina/",
"https://egemaximum.ru/zadanie-18-realnogo-ege-po-matematike-ot-4-iyunya-2015/",
"https://egemaximum.ru/putevoditel-po-zadacham-s4-16/",
"https://egemaximum.ru/zadanie-16-t-r-a-larina-161/",
"https://egemaximum.ru/zadanie-16-t-r-162-a-larina/",
"https://egemaximum.ru/zadanie-16-t-r-163-a-larina/",
"https://egemaximum.ru/zadanie-16-t-r-165-a-larina/",
"https://egemaximum.ru/zadanie-16-t-r-166-a-larina/",
"https://egemaximum.ru/zadanie-16-t-r-167-a-larina/",
"https://egemaximum.ru/zadanie-16-t-r-168-a-larina/",
"https://egemaximum.ru/zadanie-16-t-r-170-a-larina/",
"https://egemaximum.ru/zadanie-16-t-r-171-a-larina-2/",
"https://egemaximum.ru/zadanie-16-t-r-173-a-larina/",
"https://egemaximum.ru/zadanie-16-t-r-181-a-larina/",
"https://egemaximum.ru/trenirovochnaya-rabota-ot-26-01-2017-chast-s-16/",
"https://egemaximum.ru/zadanie-16-t-r-183-a-larina/",
"https://egemaximum.ru/zadanie-16-t-r-184-a-larina/",
"https://egemaximum.ru/s4-16-dosrochnyiy-ege-po-matematike-ot-31-marta-2017/",
"https://egemaximum.ru/zadanie-16-t-r-196-a-larina/",
"https://egemaximum.ru/zadanie-16-t-r-197-a-larina/",
"https://egemaximum.ru/zadanie-16-t-r-202-a-larina/",
"https://egemaximum.ru/zadanie-16-t-r-203-a-larina/",
"https://egemaximum.ru/zadanie-16-t-r-204-a-larina/",
"https://egemaximum.ru/zadanie-16-t-r-205-a-larina/",
"https://egemaximum.ru/zadanie-16-t-r-207-a-larina/",
"https://egemaximum.ru/zadanie-16-t-r-209-a-larina/",
"https://egemaximum.ru/zadanie-16-t-r-210-a-larina/",
"https://egemaximum.ru/zadanie-16-t-r-212-a-larina/",
"https://egemaximum.ru/zadanie-16-t-r-213-a-larina/",
"https://egemaximum.ru/zadanie-16-t-r-215-a-larina/",
"https://egemaximum.ru/26611-2/",
"https://egemaximum.ru/zadanie-16-t-r-223-a-larina/",
"https://egemaximum.ru/zadanie-16-t-r-224-a-larina/",
"https://egemaximum.ru/category/19/",
"https://egemaximum.ru/zadanie-19-iz-t-r-85-a-larina/",
"https://egemaximum.ru/19-iz-t-r-86-a-larina/",
"https://egemaximum.ru/zadanie-19-iz-trenirovochnogo-varianta-88-a-larina/",
"https://egemaximum.ru/zadanie-19-trenirovochnoj-raboty-a-larina/",
"https://egemaximum.ru/zadanie-19-iz-t-r-92-a-larina/",
"https://egemaximum.ru/zadanie-19-iz-t-r-93-a-larina/",
"https://egemaximum.ru/zadanie-19-t-r-94-a-larina/",
"https://egemaximum.ru/zadanie-19-t-r-95-a-larina/",
"https://egemaximum.ru/zadanie-19-t-r-96-a-larina/",
"https://egemaximum.ru/zadanie-19-t-r-97-a-larina/",
"https://egemaximum.ru/zadanie-19-t-r-99-a-larina/",
"https://egemaximum.ru/zadanie-19-t-r-101-a-larina/",
"https://egemaximum.ru/zadanie-19-t-r-102-a-larina/",
"https://egemaximum.ru/zadanie-19-t-r-103-a-larina/",
"https://egemaximum.ru/zadanie-19-t-r-104-a-larina/",
"https://egemaximum.ru/zadanie-19-t-r-105-a-larina/",
"https://egemaximum.ru/zadanie-19-t-r-106-a-larina/",
"https://egemaximum.ru/zadanie-19-t-r-107-a-larina/",
"https://egemaximum.ru/zadanie-19-t-r-108-a-larina/",
"https://egemaximum.ru/zadanie-19-t-r-109-a-larina/",
"https://egemaximum.ru/zadanie-19-t-r-110-a-larina/",
"https://egemaximum.ru/zadanie-19-t-r-111-a-larina/",
"https://egemaximum.ru/zadanie-19-t-r-112-a-larina/",
"https://egemaximum.ru/zadanie-19-t-r-113-a-larina/",
"https://egemaximum.ru/zadanie-19-t-r-114-a-larina/",
"https://egemaximum.ru/zadanie-19-t-r-115-a-larina/",
"https://egemaximum.ru/zadanie-19-t-r-116-a-larina/",
"https://egemaximum.ru/zadanie-19-t-r-118-a-larina/",
"https://egemaximum.ru/zadanie-19-t-r-119-a-larina/",
"https://egemaximum.ru/zadanie-19-t-r-120-a-larina/",
"https://egemaximum.ru/zadanie-19-iz-realnogo-ege-po-matematike-ot-4-iyunya-2015/",
"https://egemaximum.ru/putevoditel-po-prakticheskim-zadacham-s5/",
"https://egemaximum.ru/zadanie-17-t-r-a-larina-161/",
"https://egemaximum.ru/zadanie-17-t-r-a-larina-162/",
"https://egemaximum.ru/zadanie-17-t-r-163-a-larina/",
"https://egemaximum.ru/zadanie-17-t-r-165-a-larina/",
"https://egemaximum.ru/zadanie-17-t-r-166-a-larina/",
"https://egemaximum.ru/zadanie-17-t-r-167-a-larina/",
"https://egemaximum.ru/zadanie-17-t-r-168-a-larin/",
"https://egemaximum.ru/zadanie-17-t-r-170-a-larin/",
"https://egemaximum.ru/zadanie-17-t-r-171-a-larin/",
"https://egemaximum.ru/zadanie-17-t-r-173-a-larin/",
"https://egemaximum.ru/zadanie-17-t-r-176-a-larin/",
"https://egemaximum.ru/zadanie-17-t-r-181-a-larin/",
"https://egemaximum.ru/trenirovochnaya-rabota-ot-26-01-2017-chast-s-17/",
"https://egemaximum.ru/zadanie-17-t-r-183-a-larin/",
"https://egemaximum.ru/zadanie-17-t-r-184-a-larin/",
"https://egemaximum.ru/zadanie-15-t-r-184-a-larina/",
"https://egemaximum.ru/s5-17-dosrochnyiy-ege-po-matematike-ot-31-marta-2017/",
"https://egemaximum.ru/zadanie-17-t-r-194-a-larina/",
"https://egemaximum.ru/zadanie-17-t-r-196-a-larina/",
"https://egemaximum.ru/zadanie-17-t-r-197-a-larina/",
"https://egemaximum.ru/zadanie-17-t-r-202-a-larina/",
"https://egemaximum.ru/zadanie-17-t-r-203-a-larina/",
"https://egemaximum.ru/zadanie-17-t-r-204-a-larina/",
"https://egemaximum.ru/zadanie-17-t-r-205-a-larina/",
"https://egemaximum.ru/zadanie-17-t-r-207-a-larina/",
"https://egemaximum.ru/zadanie-17-t-r-209-a-larina/",
"https://egemaximum.ru/zadanie-17-t-r-210-a-larina/",
"https://egemaximum.ru/26233-2/",
"https://egemaximum.ru/zadanie-17-t-r-213-a-larina/",
"https://egemaximum.ru/zadanie-17-t-r-215-a-larina/",
"https://egemaximum.ru/zadanie-17-t-r-220-a-larina/",
"https://egemaximum.ru/zadanie-17-t-r-223-a-larin/",
"https://egemaximum.ru/zadanie-17-t-r-224-a-larina/",
"https://egemaximum.ru/category/20/",
"https://egemaximum.ru/s5-diagnosticheskoj-raboty-ot-12-dekabrya-2013-goda/",
"https://egemaximum.ru/c5-s-lovushkoj-ne-popadites/",
"https://egemaximum.ru/zadanie-20-s5-iz-t-r-86-a-larina/",
"https://egemaximum.ru/zadanie-20-s5-iz-t-r-87-a-larina/",
"https://egemaximum.ru/zadanie-20-s5-iz-trenirovochnogo-varianta-88-a-larina/",
"https://egemaximum.ru/zadanie-20-iz-t-r-91-a-larina/",
"https://egemaximum.ru/zadanie-20-s5-iz-t-r-92-a-larina/",
"https://egemaximum.ru/zadanie-20-c5-t-r-93-a-larina/",
"https://egemaximum.ru/zadanie-20-s5-t-r-94-a-larina/",
"https://egemaximum.ru/zadanie-20-s5-t-r-95-a-larina/",
"https://egemaximum.ru/zadanie-20-s5-t-r-96-a-larina/",
"https://egemaximum.ru/zadanie-20-t-r-99-a-larina/",
"https://egemaximum.ru/zadanie-20-t-r-101-a-larina/",
"https://egemaximum.ru/zadanie-20-t-r-20-a-larina/",
"https://egemaximum.ru/zadanie-20-t-r-103-a-larina/",
"https://egemaximum.ru/zadanie-20-t-r-104-a-larina/",
"https://egemaximum.ru/zadanie-20-t-r-105-a-larina/",
"https://egemaximum.ru/zadanie-20-t-r-106-a-larina/",
"https://egemaximum.ru/zadanie-20-t-r-107-a-larina/",
"https://egemaximum.ru/zadanie-20-t-r-109-a-larina/",
"https://egemaximum.ru/zadanie-20-t-r-110-a-larina/",
"https://egemaximum.ru/zadanie-20-t-r-111-a-larina/",
"https://egemaximum.ru/zadanie-20-t-r-112-a-larina/",
"https://egemaximum.ru/zadanie-20-t-r-113-a-larina/",
"https://egemaximum.ru/zadanie-20-t-r-114-a-larina/",
"https://egemaximum.ru/zadanie-20-t-r-115-a-larina/",
"https://egemaximum.ru/zadanie-20-t-r-116-a-larina/",
"https://egemaximum.ru/zadanie-20-t-r-118-a-larina/",
"https://egemaximum.ru/zadanie-20-t-r-119-a-larina/",
"https://egemaximum.ru/zadanie-20-t-r-120-a-larina/",
"https://egemaximum.ru/zadanie-20-iz-realnogo-ege-po-matematike-ot-4-iyunya-2015/",
"https://egemaximum.ru/putevoditel-po-zadacham-s-parametrom/",
"https://egemaximum.ru/zadanie-18-t-r-a-larina-161/",
"https://egemaximum.ru/zadanie-18-t-r-a-larina-162/",
"https://egemaximum.ru/zadanie-18-t-r-163-a-larina/",
"https://egemaximum.ru/zadanie-18-t-r-165-a-larina/",
"https://egemaximum.ru/zadanie-18-t-r-166-a-larina/",
"https://egemaximum.ru/zadanie-18-t-r-167-a-larina/",
"https://egemaximum.ru/zadanie-18-t-r-168-a-larina/",
"https://egemaximum.ru/zadanie-18-t-r-170-a-larina/",
"https://egemaximum.ru/23935-2/",
"https://egemaximum.ru/zadanie-18-t-r-173-a-larina/",
"https://egemaximum.ru/zadanie-16-t-r-176-a-larina/",
"https://egemaximum.ru/zadanie-18-t-r-176-a-larina/",
"https://egemaximum.ru/zadanie-18-t-r-181-a-larina/",
"https://egemaximum.ru/trenirovochnaya-rabota-ot-26-01-2017-chast-s-18/",
"https://egemaximum.ru/zadanie-18-t-r-183-a-larina/",
"https://egemaximum.ru/zadanie-18-t-r-184-a-larina/",
"https://egemaximum.ru/s6-18-dosrochnyiy-ege-po-matematike-ot-31-marta-2017/",
"https://egemaximum.ru/zadanie-18-t-r-194-a-larina/",
"https://egemaximum.ru/zadanie-18-t-r-196-a-larina/",
"https://egemaximum.ru/zadanie-18-t-r-197-a-larina/",
"https://egemaximum.ru/zadanie-18-t-r-202-a-larina/",
"https://egemaximum.ru/zadanie-18-t-r-203-a-larina/",
"https://egemaximum.ru/zadanie-18-t-r-204-a-larina/",
"https://egemaximum.ru/zadanie-18-t-r-205-a-larina/",
"https://egemaximum.ru/zadanie-18-t-r-207-a-larina/",
"https://egemaximum.ru/zadanie-18-t-r-209-a-larina/",
"https://egemaximum.ru/zadanie-18-t-r-210-a-larina/",
"https://egemaximum.ru/zadanie-18-t-r-212-a-larina/",
"https://egemaximum.ru/zadanie-18-t-r-213-a-larina/",
"https://egemaximum.ru/26499-2/",
"https://egemaximum.ru/zadanie-18-t-r-220-a-larina/",
"https://egemaximum.ru/zadanie-18-t-r-223-a-larina/",
"https://egemaximum.ru/26834-2/",
"https://egemaximum.ru/category/21/",
"https://egemaximum.ru/zadanie-21-iz-realnogo-ege-po-matematike-ot-4-iyunya-2015/",
"https://egemaximum.ru/putevoditel-po-zadacham-19-s7/",
"https://egemaximum.ru/zadanie-19-t-r-162-a-larina/",
"https://egemaximum.ru/zadanie-19-t-r-163-a-larina/",
"https://egemaximum.ru/zadanie-19-t-r-165-a-larina/",
"https://egemaximum.ru/zadanie-19-t-r-166-a-larina/",
"https://egemaximum.ru/zadanie-19-t-r-167-a-larina/",
"https://egemaximum.ru/zadanie-19-t-r-168-a-larina/",
"https://egemaximum.ru/zadanie-19-t-r-170-a-larina/",
"https://egemaximum.ru/zadanie-19-t-r-171-a-larina/",
"https://egemaximum.ru/zadanie-19-t-r-173-a-larina/",
"https://egemaximum.ru/zadanie-19-t-r-176-a-larina/",
"https://egemaximum.ru/zadanie-19-t-r-181-a-larina/",
"https://egemaximum.ru/trenirovochnaya-rabota-ot-26-01-2017-chast-s-19/",
"https://egemaximum.ru/zadanie-19-t-r-183-a-larina/",
"https://egemaximum.ru/zadanie-19-t-r-184-a-larina/",
"https://egemaximum.ru/s7-19-dosrochnyiy-ege-po-matematike-ot-31-marta-2017/",
"https://egemaximum.ru/zadanie-16-t-r-194-a-larina-2/",
"https://egemaximum.ru/zadanie-19-t-r-196-a-larina/",
"https://egemaximum.ru/zadanie-19-t-r-197-a-larina/",
"https://egemaximum.ru/zadanie-19-t-r-202-a-larina/",
"https://egemaximum.ru/zadanie-19-t-r-204-a-larina/",
"https://egemaximum.ru/zadanie-19-t-r-205-a-larina/",
"https://egemaximum.ru/zadanie-19-t-r-207-a-larina/",
"https://egemaximum.ru/zadanie-19-t-r-209-a-larina/",
"https://egemaximum.ru/zadanie-19-t-r-210-a-larina/",
"https://egemaximum.ru/zadanie-19-t-r-212-a-larina/",
"https://egemaximum.ru/zadanie-19-t-r-213-a-larina/",
"https://egemaximum.ru/zadanie-19-t-r-215-a-larina/",
"https://egemaximum.ru/zadanie-19-t-r-220-a-larina/",
"https://egemaximum.ru/zadanie-19-t-r-223-a-larina/",
"https://egemaximum.ru/zadanie-19-t-r-224-a-larina/",
"https://egemaximum.ru/category/videolektsii/",
"https://egemaximum.ru/category/x-gia/",
"https://egemaximum.ru/geometricheskaya-zadacha-chasti-ii-gia/",
"https://egemaximum.ru/zadacha-26-iz-gia/",
"https://egemaximum.ru/zadacha-iz-trenirovochnoj-raboty-1-v-formate-gia-2013/",
"https://egemaximum.ru/zadacha-23-iz-vtoroj-chasti-gia-po-matematike/",
"https://egemaximum.ru/zadaniya-23-i-25-trenirovochnoj-raboty-1-ot-19-noyabrya-2013-g/",
"https://egemaximum.ru/zadacha-26-gia-trenirovochnoj-raboty-a-larina/",
"https://egemaximum.ru/category/varianty-ege/",
"https://egemaximum.ru/trenirovochnaya-rabota-ot-14-noyabrya-2013-goda/",
"https://egemaximum.ru/diagnosticheskaya-rabota-ot-12-dekabrya-2013-goda/",
"https://egemaximum.ru/6t/",
"https://egemaximum.ru/trenirovochnaya-rabota-v-formate-ege-po-matematike-28-yanvarya-2014/",
"https://egemaximum.ru/diagnosticheskaya-rabota-po-matematike-ot-13-fevralya-2015/",
"https://egemaximum.ru/trenirovochnaya-rabota-po-matematike-26-yanvarya-2017-goda/",
"https://egemaximum.ru/trenirovochnaya-rabota-ot-26-01-2017-chast-s-13/",
"https://egemaximum.ru/zadaniya-1-12-dosrochnogo-ege-po-matematike-31-marta-2017/",
"https://egemaximum.ru/category/irracionalnye-uravneniya-i-neravenstva/",
"https://egemaximum.ru/irracionalnye-uravneniya-chast-2/",
"https://egemaximum.ru/ravnosilnye-perexody-v-irracionalnyx-uravneniyax/",
"https://egemaximum.ru/irr-ner/",
"https://egemaximum.ru/category/logarifmyi/",
"https://egemaximum.ru/logarifmicheskoe-neravenstvo-iz-ekzamena-mgu/",
"https://egemaximum.ru/category/mgu/",
"https://egemaximum.ru/zadanie-iz-probnogo-ekzamena-v-mgu-2013g/",
"https://egemaximum.ru/razbor-zadaniya-iz-probnogo-ekzamena-v-mgu-v-2013-godu-sistema-neravenstv/",
"https://egemaximum.ru/trigonometricheskoe-uravnenie-iz-probnogo-ekzamena-v-mgu-v-2013g/",
"https://egemaximum.ru/zadacha-iz-probnogo-ekzamena-v-mgu-v-2013-g/",
"https://egemaximum.ru/zadanie-s-parametrom-iz-probnogo-ekzamena-v-mgu-2013/",
"https://egemaximum.ru/variantyi-dvi-v-mgu/",
"https://egemaximum.ru/category/metod-intervalov/",
"https://egemaximum.ru/metod-intervalov-dlya-drobno-racionalnyx-neravenstv-chast-2/",
"https://egemaximum.ru/category/metod-racionalizacii/",
"https://egemaximum.ru/metod-racionalizacii-chast-1-2/",
"https://egemaximum.ru/category/modul-2/",
"https://egemaximum.ru/neravenstvo-s-dvumya-modulyami-chast-ii/",
"https://egemaximum.ru/category/parametr-2/",
"https://egemaximum.ru/category/peremenka/",
"https://egemaximum.ru/peremena/",
"https://egemaximum.ru/posmeemsya-vmeste/",
"https://egemaximum.ru/shutki-uchenyx/",
"https://egemaximum.ru/den-rozhdeniya-sajtu-god/",
"https://egemaximum.ru/nashej-semi-kosnulas-beda/",
"https://egemaximum.ru/izmeneniya-v-kim-ege-2015/",
"https://egemaximum.ru/nachinaem-gotovitsya-k-ege-2015/",
"https://egemaximum.ru/category/geometriya/",
"https://egemaximum.ru/zadachi-na-podobie-treugolnikov/",
"https://egemaximum.ru/ploshhadi-figur-narisovannyx-na-kletchatoj-bumage/",
"https://egemaximum.ru/formula-braxmagupty/",
"https://egemaximum.ru/category/pokazatelnye-uravneniya-i-neravenstva/",
"https://egemaximum.ru/category/razlozhenie-na-mnozhiteli/",
"https://egemaximum.ru/category/drobno-racionalnye-vyrazheniya/",
"https://egemaximum.ru/category/spravochnyiy-material/",
"https://egemaximum.ru/trigonometricheskij-krug-ii/",
"https://egemaximum.ru/trenirovochnyj-variant-ege-1/",
"https://egemaximum.ru/trenirovochnyj-variant-ege-2/",
"https://egemaximum.ru/trenirovochnyj-variant-ege-3/",
"https://egemaximum.ru/trenirovochnyj-variant-4/",
"https://egemaximum.ru/test-iz-varianta-gia-2013-28-maya/",
"https://egemaximum.ru/znacheniya-tangensa-i-kotangensa-na-trigonometricheskom-kruge/",
"https://egemaximum.ru/arifmeticheskaya-progressiya-summa-n-pervyx-chlenov-arifmeticheskoj-progressii/",
"https://egemaximum.ru/prostejshie-trigonometricheskie-neravenstva-primery/",
"https://egemaximum.ru/kollekcioneram-formul-posvyashhaetsya/",
"https://egemaximum.ru/formula-dliny-bissektrisy-cherez-dliny-storon-treugolnika/",
"https://egemaximum.ru/t-r-221-a-larina-chast-s/",
"https://egemaximum.ru/category/stereometriya/",
"https://egemaximum.ru/category/t-p-a-larina/",
"https://egemaximum.ru/trenirovochnyj-variant-121-a-larina/",
"https://egemaximum.ru/trenirovochny-variant-122-a-larina/",
"https://egemaximum.ru/trenirovochnyj-variant-123-a-larina/",
"https://egemaximum.ru/trenirovochnyj-variant-124-a-larina/",
"https://egemaximum.ru/trenirovochnyj-variant-125-a-larina/",
"https://egemaximum.ru/trenirovochnyj-variant-126-a-larina/",
"https://egemaximum.ru/trenirovochnaya-rabota-127-a-larina/",
"https://egemaximum.ru/trenirovochnaya-rabota-128-a-larina/",
"https://egemaximum.ru/trenirovochnaya-rabota-129-a-larina/",
"https://egemaximum.ru/trenirovochnaya-rabota-130-a-larina/",
"https://egemaximum.ru/trenirovochnaya-rabota-131-a-larina/",
"https://egemaximum.ru/trenirovochnaya-rabota-132-a-larina/",
"https://egemaximum.ru/trenirovochnaya-rabota-133-a-larina/",
"https://egemaximum.ru/trenirovochnaya-rabota-134-a-larina/",
"https://egemaximum.ru/trenirovochnyj-variant-138-a-larina/",
"https://egemaximum.ru/trenirovochnaya-rabota-139-a-larina/",
"https://egemaximum.ru/trenirovochnaya-rabota-140-a-larina/",
"https://egemaximum.ru/trenirovochnaya-rabota-141-a-larina/",
"https://egemaximum.ru/trenirovochnaya-rabota-142-a-larina/",
"https://egemaximum.ru/trenirovochnaya-rabota-143-a-larina/",
"https://egemaximum.ru/trenirovochnaya-rabota-144-a-larina/",
"https://egemaximum.ru/trenirovochnaya-rabota-146-a-larina/",
"https://egemaximum.ru/trenirovochnaya-rabota-147-a-larina/",
"https://egemaximum.ru/trenirovochnaya-rabota-148-a-larina/",
"https://egemaximum.ru/trenirovochnyj-variant-150-a-larina/",
"https://egemaximum.ru/category/tekstovyie-zadachi/",
"https://egemaximum.ru/category/teoriya-chisel/",
"https://egemaximum.ru/category/testy-2/",
"https://egemaximum.ru/test-po-teme-razlozhenie-na-mnozhiteli/",
"https://egemaximum.ru/test-po-teme-pryamougolnyj-treugolnik-vychislenie-dlin/",
"https://egemaximum.ru/test-po-zadacham-12-prizma/",
"https://egemaximum.ru/testvychislenie-znachenij-trigonometricheskix-vyrazhenij/",
"https://egemaximum.ru/test-vychislenie-osnovnyx-znachenij-trigonometricheskix-funkcij/",
"https://egemaximum.ru/test-po-zadacham-14/",
"https://egemaximum.ru/test-po-zadacham-14-2/",
"https://egemaximum.ru/test-po-zadacham-na-kletchatoj-reshetke/",
"https://egemaximum.ru/category/trigonometriya/",
"https://egemaximum.ru/formuly-dlya-resheniya-prostejshix-trigonometricheskix-uravnenij-chast-2/",
"https://egemaximum.ru/formuly-dlya-resheniya-prostejshix-trigonometricheskix-uravnenij-chast-3/",
"https://egemaximum.ru/vvedenie-vspomogatelnogo-argumenta/",
"https://egemaximum.ru/category/funkcii-2/",
"https://egemaximum.ru/izbrannyie-zapisi/",
"https://egemaximum.ru/katalog-zadach/",
"https://egemaximum.ru/sitemap.xml",
"https://egemaximum.ru/wppage/dostup-1/",
"https://egemaximum.ru/wppage/dostup-2/",
"https://egemaximum.ru/wp-egemax-admins-er/?action=lostpassword",
"https://egemaximum.ru/comment-page-13/",
"https://egemaximum.ru/tag/logarifmyi/",
"https://egemaximum.ru/tag/shpargalki-tablicy/",
"https://egemaximum.ru/tag/modul/",
"https://egemaximum.ru/tag/metod-intervalov-2/",
"https://egemaximum.ru/tag/metod-racionalizacii-2/",
"https://egemaximum.ru/metod-racionalizacii-chast-1/comment-page-1/",
"https://egemaximum.ru/tag/razlozhenie-na-mnozhiteli/",
"https://egemaximum.ru/tag/stepen/",
"https://egemaximum.ru/tag/grafiki-funkcij/",
"https://egemaximum.ru/tag/funkcii/",
"https://egemaximum.ru/prostejshie-trigonometricheskie-neravenstva/comment-page-6/",
"https://egemaximum.ru/tag/trigonometricheskiy-krug/",
"https://egemaximum.ru/tag/trigonometricheskie-formulyi/",
"https://egemaximum.ru/tag/bissektrisa/",
"https://egemaximum.ru/tag/testy/",
"https://egemaximum.ru/podobnye-treugolniki/comment-page-1/",
"https://egemaximum.ru/tag/ploshhadi-figur/",
"https://egemaximum.ru/trapeciya-svojstva-trapecii/comment-page-14/",
"https://egemaximum.ru/category/x-gia/gia/",
"https://egemaximum.ru/tag/mgu/",
"https://egemaximum.ru/tag/2-chast/",
"https://egemaximum.ru/tag/videouroki/",
"https://egemaximum.ru/tag/trigonometriya-2/",
"https://egemaximum.ru/tag/chast-s/",
"https://egemaximum.ru/tag/parametr/",
"https://egemaximum.ru/stati-2/page/5/",
"https://egemaximum.ru/stati-2/page/6/",
"https://egemaximum.ru/stati-2/page/7/",
"https://egemaximum.ru/stati-2/page/52/",
"https://egemaximum.ru/stati-2/page/50/",
"https://egemaximum.ru/stati-2/page/51/",
"https://egemaximum.ru/dosrochnyj-ege-po-matematike-ot-28-marta-2016/comment-page-1/",
"https://egemaximum.ru/zadaniya-5-teoriya-veroyatnosti-chast-2/comment-page-4/",
"https://egemaximum.ru/zadaniya-5-teoriya-veroyatnosti/comment-page-3/",
"https://egemaximum.ru/tag/pokazatelnye-uravneniya-i-neravenstva-2/",
"https://egemaximum.ru/wpm-category/trigonometriya-6-10/",
"https://egemaximum.ru/11-3/comment-page-1/",
"https://egemaximum.ru/14-issledovanie-funkcii/comment-page-1/",
"https://egemaximum.ru/category/15/page/2/",
"https://egemaximum.ru/category/15/page/3/",
"https://egemaximum.ru/category/15/page/4/",
"https://egemaximum.ru/category/15/page/5/",
"https://egemaximum.ru/category/16/page/2/",
"https://egemaximum.ru/category/16/page/3/",
"https://egemaximum.ru/category/16/page/4/",
"https://egemaximum.ru/category/16/page/5/",
"https://egemaximum.ru/category/16/page/6/",
"https://egemaximum.ru/zadanie-16-realnogo-ege-po-matematike-ot-4-iyunya-2015/comment-page-1/",
"https://egemaximum.ru/category/17/page/3/",
"https://egemaximum.ru/category/17/page/4/",
"https://egemaximum.ru/wpm/pryamougolnyj-treugolnik/",
"https://egemaximum.ru/category/17/page/5/",
"https://egemaximum.ru/category/17/page/2/",
"https://egemaximum.ru/category/17/page/6/",
"https://egemaximum.ru/zadanie-17-t-r-120-a-larina/comment-page-1/",
"https://egemaximum.ru/category/18/page/2/",
"https://egemaximum.ru/category/18/page/3/",
"https://egemaximum.ru/category/18/page/4/",
"https://egemaximum.ru/category/18/page/5/",
"https://egemaximum.ru/category/18/page/6/",
"https://egemaximum.ru/category/19/page/2/",
"https://egemaximum.ru/category/19/page/3/",
"https://egemaximum.ru/category/19/page/4/",
"https://egemaximum.ru/category/19/page/5/",
"https://egemaximum.ru/zadanie-19-iz-realnogo-ege-po-matematike-ot-4-iyunya-2015/comment-page-1/",
"https://egemaximum.ru/category/20/page/2/",
"https://egemaximum.ru/category/20/page/3/",
"https://egemaximum.ru/category/20/page/4/",
"https://egemaximum.ru/category/20/page/5/",
"https://egemaximum.ru/category/20/page/6/",
"https://egemaximum.ru/category/21/page/2/",
"https://egemaximum.ru/category/21/page/3/",
"https://egemaximum.ru/category/videolektsii/page/2/",
"https://egemaximum.ru/category/videolektsii/page/3/",
"https://egemaximum.ru/category/varianty-ege/page/2/",
"https://egemaximum.ru/category/varianty-ege/page/3/",
"https://egemaximum.ru/category/varianty-ege/page/4/",
"https://egemaximum.ru/trenirovochnaya-rabota-v-formate-ege-po-matematike-28-yanvarya-2014/comment-page-1/",
"https://egemaximum.ru/category/logarifmyi/page/2/",
"https://egemaximum.ru/category/logarifmyi/page/3/",
"https://egemaximum.ru/category/metod-racionalizacii/page/2/",
"https://egemaximum.ru/category/parametr-2/page/2/",
"https://egemaximum.ru/category/parametr-2/page/3/",
"https://egemaximum.ru/nashej-semi-kosnulas-beda/comment-page-2/",
"https://egemaximum.ru/category/geometriya/page/2/",
"https://egemaximum.ru/category/geometriya/page/3/",
"https://egemaximum.ru/category/geometriya/page/4/",
"https://egemaximum.ru/category/geometriya/page/5/",
"https://egemaximum.ru/category/spravochnyiy-material/page/2/",
"https://egemaximum.ru/category/spravochnyiy-material/page/3/",
"https://egemaximum.ru/category/spravochnyiy-material/page/4/",
"https://egemaximum.ru/category/spravochnyiy-material/page/5/",
"https://egemaximum.ru/category/spravochnyiy-material/page/6/",
"https://egemaximum.ru/prostejshie-trigonometricheskie-neravenstva-primery/comment-page-1/",
"https://egemaximum.ru/category/stereometriya/page/2/",
"https://egemaximum.ru/category/stereometriya/page/3/",
"https://egemaximum.ru/category/stereometriya/page/4/",
"https://egemaximum.ru/category/t-p-a-larina/page/2/",
"https://egemaximum.ru/category/t-p-a-larina/page/3/",
"https://egemaximum.ru/category/t-p-a-larina/page/4/",
"https://egemaximum.ru/category/t-p-a-larina/page/28/",
"https://egemaximum.ru/category/t-p-a-larina/page/29/",
"https://egemaximum.ru/category/t-p-a-larina/page/30/",
"https://egemaximum.ru/trenirovochnyj-variant-126-a-larina/comment-page-1/",
"https://egemaximum.ru/trenirovochnaya-rabota-129-a-larina/comment-page-1/",
"https://egemaximum.ru/category/testy-2/page/2/",
"https://egemaximum.ru/category/testy-2/page/3/",
"https://egemaximum.ru/category/testy-2/page/4/",
"https://egemaximum.ru/category/testy-2/page/5/",
"https://egemaximum.ru/category/trigonometriya/page/2/",
"https://egemaximum.ru/category/trigonometriya/page/3/",
"https://egemaximum.ru/wp-egemax-admins-er/",
"https://egemaximum.ru/wp-egemax-admins-er/?action=register",
"https://egemaximum.ru/comment-page-12/",
"https://egemaximum.ru/tag/shpargalki-tablicy/page/2/",
"https://egemaximum.ru/prostejshie-trigonometricheskie-neravenstva/comment-page-5/",
"https://egemaximum.ru/tag/testy/page/2/",
"https://egemaximum.ru/trapeciya-svojstva-trapecii/comment-page-13/",
"https://egemaximum.ru/tag/chast-s/page/2/",
"https://egemaximum.ru/stati-2/page/8/",
"https://egemaximum.ru/stati-2/page/9/",
"https://egemaximum.ru/stati-2/page/10/",
"https://egemaximum.ru/stati-2/page/49/",
"https://egemaximum.ru/stati-2/page/47/",
"https://egemaximum.ru/stati-2/page/48/",
"https://egemaximum.ru/zadaniya-5-teoriya-veroyatnosti-chast-2/comment-page-3/",
"https://egemaximum.ru/zadaniya-5-teoriya-veroyatnosti/comment-page-2/",
"https://egemaximum.ru/wpm/trigonometriya-6-10/znakomstvo-s-trigonometricheskim-krugom/",
"https://egemaximum.ru/wpm/trigonometriya-6-10/rabota-s-radianami/",
"https://egemaximum.ru/wpm/trigonometriya-6-10/os-sinusov-i-os-kosinusov-osnovnye-znacheniya-trigonometricheskix-funkcij/",
"https://egemaximum.ru/wpm/trigonometriya-6-10/os-tangensov-i-kotangensov/",
"https://egemaximum.ru/wpm/trigonometriya-6-10/osnovnye-trigonometricheskie-formuly/",
"https://egemaximum.ru/wpm/trigonometriya-6-10/paor/",
"https://egemaximum.ru/wpm/trigonometriya-6-10/formuly-privedeniya-2/",
"https://egemaximum.ru/wpm/trigonometriya-6-10/formula-dvojnogo-ugla-dlya-sinusa-2/",
"https://egemaximum.ru/wpm/trigonometriya-6-10/formuly-dvojnogo-ugla-dlya-kosinusa/",
"https://egemaximum.ru/wpm/trigonometriya-6-10/formuly-dvojnogo-ugla-2/",
"https://egemaximum.ru/wpm/trigonometriya-6-10/obuchayushhie-testy/",
"https://egemaximum.ru/wpm/trigonometriya-6-10/prostejshie-trigonometricheskie-uravneniya/",
"https://egemaximum.ru/wpm/trigonometriya-6-10/prostejshe-trigonometricheskie-uravneniya-ii/",
"https://egemaximum.ru/wpm/trigonometriya-6-10/prostejshie-trigonometricheskie-neravenstva/",
"https://egemaximum.ru/wpm/trigonometriya-6-10/prostejshie-trigonometricheskie-neravenstva-ii/",
"https://egemaximum.ru/wpm/trigonometriya-6-10/obratnye-trigonometricheskie-funkcii/",
"https://egemaximum.ru/wpm-category/planimetriya-4-7/",
"https://egemaximum.ru/nashej-semi-kosnulas-beda/comment-page-1/",
"https://egemaximum.ru/category/t-p-a-larina/page/5/",
"https://egemaximum.ru/category/t-p-a-larina/page/6/",
"https://egemaximum.ru/category/t-p-a-larina/page/7/",
"https://egemaximum.ru/category/t-p-a-larina/page/27/",
"https://egemaximum.ru/category/t-p-a-larina/page/25/",
"https://egemaximum.ru/category/t-p-a-larina/page/26/",
"https://egemaximum.ru/comment-page-11/",
"https://egemaximum.ru/prostejshie-trigonometricheskie-neravenstva/comment-page-4/",
"https://egemaximum.ru/trapeciya-svojstva-trapecii/comment-page-12/",
"https://egemaximum.ru/stati-2/page/11/",
"https://egemaximum.ru/stati-2/page/12/",
"https://egemaximum.ru/stati-2/page/13/",
"https://egemaximum.ru/stati-2/page/46/",
"https://egemaximum.ru/stati-2/page/44/",
"https://egemaximum.ru/stati-2/page/45/",
"https://egemaximum.ru/zadaniya-5-teoriya-veroyatnosti-chast-2/comment-page-2/",
"https://egemaximum.ru/zadaniya-5-teoriya-veroyatnosti/comment-page-1/",
"https://egemaximum.ru/wpm/planimetriya-4-7/vpisannye-i-centralnye-ugly/",
"https://egemaximum.ru/wpm/planimetriya-4-7/pryamougolnyj-treugolnik/",
"https://egemaximum.ru/wpm/planimetriya-4-7/pryamougolny-treugolnik-ii/",
"https://egemaximum.ru/wpm/planimetriya-4-7/treugolnik-vychislenie-uglov-i-dlin/",
"https://egemaximum.ru/wpm/planimetriya-4-7/treugolnik-ii/",
"https://egemaximum.ru/wpm/planimetriya-4-7/ravnobedrennyj-treugolnik/",
"https://egemaximum.ru/wpm/planimetriya-4-7/parallelogramm/",
"https://egemaximum.ru/wpm/planimetriya-4-7/pryamougolnik/",
"https://egemaximum.ru/wpm/planimetriya-4-7/romb/",
"https://egemaximum.ru/wpm/planimetriya-4-7/trapeciya/",
"https://egemaximum.ru/wpm/planimetriya-4-7/chetyrexugolnik/",
"https://egemaximum.ru/wpm/planimetriya-4-7/mnogougolnik/",
"https://egemaximum.ru/wpm/planimetriya-4-7/krug/",
"https://egemaximum.ru/wpm/planimetriya-4-7/xorda-sekushhaya-kasatelnaya/",
"https://egemaximum.ru/wpm/planimetriya-4-7/zadachi-na-kombinaciyu-geometricheskix-tel/",
"https://egemaximum.ru/wpm/planimetriya-4-7/vektory/",
"https://egemaximum.ru/wpm/planimetriya-4-7/koordinatnaya-ploskost/",
"https://egemaximum.ru/category/t-p-a-larina/page/8/",
"https://egemaximum.ru/category/t-p-a-larina/page/9/",
"https://egemaximum.ru/category/t-p-a-larina/page/10/",
"https://egemaximum.ru/category/t-p-a-larina/page/24/",
"https://egemaximum.ru/category/t-p-a-larina/page/22/",
"https://egemaximum.ru/category/t-p-a-larina/page/23/",
"https://egemaximum.ru/comment-page-10/",
"https://egemaximum.ru/prostejshie-trigonometricheskie-neravenstva/comment-page-3/",
"https://egemaximum.ru/trapeciya-svojstva-trapecii/comment-page-11/",
"https://egemaximum.ru/stati-2/page/14/",
"https://egemaximum.ru/stati-2/page/15/",
"https://egemaximum.ru/stati-2/page/16/",
"https://egemaximum.ru/stati-2/page/43/",
"https://egemaximum.ru/stati-2/page/41/",
"https://egemaximum.ru/stati-2/page/42/",
"https://egemaximum.ru/zadaniya-5-teoriya-veroyatnosti-chast-2/comment-page-1/",
"https://egemaximum.ru/category/t-p-a-larina/page/11/",
"https://egemaximum.ru/category/t-p-a-larina/page/12/",
"https://egemaximum.ru/category/t-p-a-larina/page/13/",
"https://egemaximum.ru/category/t-p-a-larina/page/21/",
"https://egemaximum.ru/category/t-p-a-larina/page/19/",
"https://egemaximum.ru/category/t-p-a-larina/page/20/",
"https://egemaximum.ru/comment-page-9/",
"https://egemaximum.ru/prostejshie-trigonometricheskie-neravenstva/comment-page-2/",
"https://egemaximum.ru/trapeciya-svojstva-trapecii/comment-page-10/",
"https://egemaximum.ru/stati-2/page/17/",
"https://egemaximum.ru/stati-2/page/18/",
"https://egemaximum.ru/stati-2/page/19/",
"https://egemaximum.ru/stati-2/page/40/",
"https://egemaximum.ru/stati-2/page/38/",
"https://egemaximum.ru/stati-2/page/39/",
"https://egemaximum.ru/category/t-p-a-larina/page/14/",
"https://egemaximum.ru/category/t-p-a-larina/page/15/",
"https://egemaximum.ru/category/t-p-a-larina/page/16/",
"https://egemaximum.ru/category/t-p-a-larina/page/18/",
"https://egemaximum.ru/category/t-p-a-larina/page/17/",
"https://egemaximum.ru/comment-page-8/",
"https://egemaximum.ru/prostejshie-trigonometricheskie-neravenstva/comment-page-1/",
"https://egemaximum.ru/trapeciya-svojstva-trapecii/comment-page-9/",
"https://egemaximum.ru/stati-2/page/20/",
"https://egemaximum.ru/stati-2/page/21/",
"https://egemaximum.ru/stati-2/page/22/",
"https://egemaximum.ru/stati-2/page/37/",
"https://egemaximum.ru/stati-2/page/35/",
"https://egemaximum.ru/stati-2/page/36/",
"https://egemaximum.ru/comment-page-7/",
"https://egemaximum.ru/trapeciya-svojstva-trapecii/comment-page-8/",
"https://egemaximum.ru/stati-2/page/23/",
"https://egemaximum.ru/stati-2/page/24/",
"https://egemaximum.ru/stati-2/page/25/",
"https://egemaximum.ru/stati-2/page/34/",
"https://egemaximum.ru/stati-2/page/32/",
"https://egemaximum.ru/stati-2/page/33/",
"https://egemaximum.ru/comment-page-6/",
"https://egemaximum.ru/trapeciya-svojstva-trapecii/comment-page-7/",
"https://egemaximum.ru/stati-2/page/26/",
"https://egemaximum.ru/stati-2/page/27/",
"https://egemaximum.ru/stati-2/page/28/",
"https://egemaximum.ru/stati-2/page/31/",
"https://egemaximum.ru/stati-2/page/29/",
"https://egemaximum.ru/stati-2/page/30/",
"https://egemaximum.ru/comment-page-5/",
"https://egemaximum.ru/trapeciya-svojstva-trapecii/comment-page-6/",
"https://egemaximum.ru/comment-page-4/",
"https://egemaximum.ru/trapeciya-svojstva-trapecii/comment-page-5/",
"https://egemaximum.ru/comment-page-3/",
"https://egemaximum.ru/trapeciya-svojstva-trapecii/comment-page-4/",
"https://egemaximum.ru/comment-page-2/",
"https://egemaximum.ru/trapeciya-svojstva-trapecii/comment-page-3/",
"https://egemaximum.ru/comment-page-1/",
"https://egemaximum.ru/trapeciya-svojstva-trapecii/comment-page-2/",
"https://egemaximum.ru/trapeciya-svojstva-trapecii/comment-page-1/",
"https://egemaximum.ru/arxiv/ege-2020/",
"https://egemaximum.ru/comment-page-16/",
"https://egemaximum.ru/18-trenirovochnoy-rabotyi-283-a-larina-2/",
"https://egemaximum.ru/18-trenirovochnoy-rabotyi-283-a-larina/",
"https://egemaximum.ru/15-trenirovochnoy-rabotyi-283-a-larina/",
"https://egemaximum.ru/13-trenirovochnoy-rabotyi-283-a-larina/",
"https://egemaximum.ru/zadanie-15-trenirovochnoy-rabotyi-282-a-larina/",
"https://egemaximum.ru/18-trenirovochnogo-varianta-281-a-larina/",
"https://egemaximum.ru/14-trenirovochnogo-varianta-281-a-larina/",
"https://egemaximum.ru/ravnosilnost/",
"https://egemaximum.ru/14-trenirovochnogo-varianta-280-a-larina/",
"https://egemaximum.ru/16-trenirovochnogo-varianta-280-a-larina/",
"https://egemaximum.ru/teorema-o-dline-vneshney-obshhey-kasatelnoy-k-okruzhnostyam/",
"https://egemaximum.ru/razbor-zadaniy-demoversii-ege-po-matematike-2020/",
"https://egemaximum.ru/uravnenie-okruzhnosti/",
"https://egemaximum.ru/koordinatnyiy-sposob-nahozhdeniya-rasstoyaniya-mezhdu-skreshhivayushhimisya-pryamyimi/",
"https://egemaximum.ru/zadanie-18-realnyiy-ege-dalniy-vostok-ot-29-maya-2019/",
"https://egemaximum.ru/stati-2/page/56/",
"https://egemaximum.ru/zadanie-17-realnyiy-ege-dalniy-vostok-ot-29-maya-2019/",
"https://egemaximum.ru/zadanie-16-realnyiy-ege-dalniy-vostok-ot-29-maya-2019/",
"https://egemaximum.ru/zadanie-15-realnyiy-ege-dalniy-vostok-ot-29-maya-2019/",
"https://egemaximum.ru/zadanie-14-realnyiy-ege-dalniy-vostok-ot-29-maya-2019/",
"https://egemaximum.ru/zadanie-13-realnyiy-ege-dalniy-vostok-ot-29-maya-2019/",
"https://egemaximum.ru/zadanie-19-realnyiy-ege-dalniy-vostok-ot-29-maya-2019/",
"https://egemaximum.ru/zadanie-13-realnyiy-ege-2019-ot-29-maya/",
"https://egemaximum.ru/zadanie-14-realnyiy-ege-2019-ot-29-maya/",
"https://egemaximum.ru/zadanie-15-realnyiy-ege-2019-ot-29-maya/",
"https://egemaximum.ru/zadanie-16-realnyiy-ege-2019-ot-29-maya/",
"https://egemaximum.ru/zadanie-17-realnyiy-ege-2019-ot-29-maya/",
"https://egemaximum.ru/zadanie-18-realnyiy-ege-2019-ot-29-maya/",
"https://egemaximum.ru/zadanie-19-realnyiy-ege-2019-ot-29-maya/",
"https://egemaximum.ru/comment-page-15/",
"https://egemaximum.ru/category/15/page/6/",
"https://egemaximum.ru/category/16/page/7/",
"https://egemaximum.ru/category/varianty-ege/page/5/",
"https://egemaximum.ru/category/geometriya/page/6/",
"https://egemaximum.ru/zadanie-16-realnyiy-ege-ot-10-iyulya-2020/",
"https://egemaximum.ru/zadanie-18-trenirovochnoy-rabotyi-ot-11-marta-2020/",
"https://egemaximum.ru/arxiv/2021-2/",
"https://egemaximum.ru/zadaniya-%e2%84%961-prostejshie-tekstovye-zadachi-na-vychislenie/",
"https://egemaximum.ru/realnyj-ege-ot-7-iyunya-2021-osnovnaya-volna-variant-3/",
"https://egemaximum.ru/latexpagerealnyj-ege-ot-7-iyunya-2021-osnovnaya-volna/",
"https://egemaximum.ru/test-fizicheskij-smysl-proizvodnoj/",
"https://egemaximum.ru/test-zadanie-5-ege-trigonometricheskie-uravneniya/",
"https://egemaximum.ru/test-preobrazovanie-trigonometricheskih-vyrazhenij/"
]